0.278 0.069 0.025 0.001 0.026 0.033 0.074 0.012 0.004 0.009 0.024 0.089 0.000 0.001 0.006 0.013 0.028 0.004 0.001 0.000 0.029 0.026 0.004 0.001 0.009 0.015 0.011 0.002 0.001 0.002 0.003 0.005 0.009 0.001 0.000 0.000 0.009 0.004 0.001 0.001 0.008 0.026 0.023 0.002 0.002 0.002 0.008 0.007 0.012 0.000 0.000 0.000 0.006 0.002 0.001 0.000 0.005 0.002 0.003 0.001 0.007 0.005 0.011 0.034 

0.241442s
