0.869 0.015 0.000 0.000 0.003 0.010 0.002 0.000 0.000 0.000 0.000 0.000 0.000 0.000 0.000 0.000 0.024 0.001 0.000 0.000 0.006 0.011 0.001 0.000 0.000 0.002 0.001 0.000 0.000 0.000 0.000 0.000 0.006 0.001 0.000 0.000 0.004 0.003 0.000 0.000 0.000 0.004 0.005 0.000 0.000 0.000 0.001 0.000 0.002 0.000 0.000 0.000 0.009 0.001 0.000 0.000 0.003 0.003 0.002 0.000 0.001 0.001 0.003 0.004 

0.412143s
