0.00 1.00 2.00 3.00 4.00 5.00 6.00 7.00 8.00 9.00 10.00 11.00 12.00 13.00 14.00 15.00 16.00 17.00 18.00 19.00 20.00 21.00 22.00 23.00 24.00 25.00 26.00 27.00 28.00 29.00 30.00 31.00 32.00 33.00 34.00 35.00 36.00 37.00 38.00 39.00 40.00 41.00 42.00 43.00 44.00 45.00 46.00 47.00 48.00 49.00 50.00 51.00 52.00 53.00 54.00 55.00 56.00 57.00 58.00 59.00 60.00 61.00 62.00 63.00 64.00 65.00 66.00 67.00 68.00 69.00 70.00 71.00 72.00 73.00 74.00 75.00 76.00 77.00 78.00 79.00 80.00 81.00 82.00 83.00 84.00 85.00 86.00 87.00 88.00 89.00 90.00 91.00 92.00 93.00 94.00 95.00 96.00 97.00 98.00 99.00 100.00
12 7 10 10 9 8 13 5 8 12 7 11 9 8 19 10 13 10 12 13 15 8 8 13 7 12 15 15 17 9 9 16 12 12 17 14 13 9 11 7 11 6 9 9 12 7 6 10 10 8 14 7 11 9 9 9 9 7 6 13 13 12 11 10 11 9 9 9 10 7 6 12 9 9 7 13 6 6 9 5 8 6 10 13 12 10 12 7 15 12 2 11 10 8 16 6 7 8 12 5
1352
