0.00 0.20 0.40 0.60 0.80 1.00 1.20 1.40 1.60 1.80 2.00 2.20 2.40 2.60 2.80 3.00 3.20 3.40 3.60 3.80 4.00 4.20 4.40 4.60 4.80 5.00 5.20 5.40 5.60 5.80 6.00 6.20 6.40 6.60 6.80 7.00 7.20 7.40 7.60 7.80 8.00 8.20 8.40 8.60 8.80 9.00 9.20 9.40 9.60 9.80 10.00 10.20 10.40 10.60 10.80 11.00 11.20 11.40 11.60 11.80 12.00 12.20 12.40 12.60 12.80 13.00 13.20 13.40 13.60 13.80 14.00 14.20 14.40 14.60 14.80 15.00 15.20 15.40 15.60 15.80 16.00 16.20 16.40 16.60 16.80 17.00 17.20 17.40 17.60 17.80 18.00 18.20 18.40 18.60 18.80 19.00 19.20 19.40 19.60 19.80 20.00 20.20 20.40 20.60 20.80 21.00 21.20 21.40 21.60 21.80 22.00 22.20 22.40 22.60 22.80 23.00 23.20 23.40 23.60 23.80 24.00 24.20 24.40 24.60 24.80 25.00 25.20 25.40 25.60 25.80 26.00 26.20 26.40 26.60 26.80 27.00 27.20 27.40 27.60 27.80 28.00 28.20 28.40 28.60 28.80 29.00 29.20 29.40 29.60 29.80 30.00 30.20 30.40 30.60 30.80 31.00 31.20 31.40 31.60 31.80 32.00 32.20 32.40 32.60 32.80 33.00 33.20 33.40 33.60 33.80 34.00 34.20 34.40 34.60 34.80 35.00 35.20 35.40 35.60 35.80 36.00 36.20 36.40 36.60 36.80 37.00 37.20 37.40 37.60 37.80 38.00 38.20 38.40 38.60 38.80 39.00 39.20 39.40 39.60 39.80 40.00 40.20 40.40 40.60 40.80 41.00 41.20 41.40 41.60 41.80 42.00 42.20 42.40 42.60 42.80 43.00 43.20 43.40 43.60 43.80 44.00 44.20 44.40 44.60 44.80 45.00 45.20 45.40 45.60 45.80 46.00 46.20 46.40 46.60 46.80 47.00 47.20 47.40 47.60 47.80 48.00 48.20 48.40 48.60 48.80 49.00 49.20 49.40 49.60 49.80 50.00 50.20 50.40 50.60 50.80 51.00 51.20 51.40 51.60 51.80 52.00 52.20 52.40 52.60 52.80 53.00 53.20 53.40 53.60 53.80 54.00 54.20 54.40 54.60 54.80 55.00 55.20 55.40 55.60 55.80 56.00 56.20 56.40 56.60 56.80 57.00 57.20 57.40 57.60 57.80 58.00 58.20 58.40 58.60 58.80 59.00 59.20 59.40 59.60 59.80 60.00 60.20 60.40 60.60 60.80 61.00 61.20 61.40 61.60 61.80 62.00 62.20 62.40 62.60 62.80 63.00 63.20 63.40 63.60 63.80 64.00 64.20 64.40 64.60 64.80 65.00 65.20 65.40 65.60 65.80 66.00 66.20 66.40 66.60 66.80 67.00 67.20 67.40 67.60 67.80 68.00 68.20 68.40 68.60 68.80 69.00 69.20 69.40 69.60 69.80 70.00 70.20 70.40 70.60 70.80 71.00 71.20 71.40 71.60 71.80 72.00 72.20 72.40 72.60 72.80 73.00 73.20 73.40 73.60 73.80 74.00 74.20 74.40 74.60 74.80 75.00 75.20 75.40 75.60 75.80 76.00 76.20 76.40 76.60 76.80 77.00 77.20 77.40 77.60 77.80 78.00 78.20 78.40 78.60 78.80 79.00 79.20 79.40 79.60 79.80 80.00 80.20 80.40 80.60 80.80 81.00 81.20 81.40 81.60 81.80 82.00 82.20 82.40 82.60 82.80 83.00 83.20 83.40 83.60 83.80 84.00 84.20 84.40 84.60 84.80 85.00 85.20 85.40 85.60 85.80 86.00 86.20 86.40 86.60 86.80 87.00 87.20 87.40 87.60 87.80 88.00 88.20 88.40 88.60 88.80 89.00 89.20 89.40 89.60 89.80 90.00 90.20 90.40 90.60 90.80 91.00 91.20 91.40 91.60 91.80 92.00 92.20 92.40 92.60 92.80 93.00 93.20 93.40 93.60 93.80 94.00 94.20 94.40 94.60 94.80 95.00 95.20 95.40 95.60 95.80 96.00 96.20 96.40 96.60 96.80 97.00 97.20 97.40 97.60 97.80 98.00 98.20 98.40 98.60 98.80 99.00 99.20 99.40 99.60 99.80 100.00
306 312 301 305 285 303 301 269 280 284 305 284 298 326 309 287 300 287 297 277 288 265 281 287 313 315 294 313 258 280 278 290 309 306 271 291 299 268 296 293 294 308 309 289 307 280 285 278 335 283 303 285 297 324 309 307 291 305 274 326 302 304 277 322 315 279 295 316 305 286 277 308 317 298 299 283 309 298 266 316 293 316 322 278 311 310 313 277 299 295 326 288 296 311 309 298 285 324 302 310 279 290 283 299 294 298 314 282 283 267 324 304 295 305 322 307 266 299 311 294 333 287 307 311 326 310 312 303 307 295 303 293 297 286 335 308 290 299 282 311 280 289 277 308 313 285 280 305 278 286 291 296 322 290 296 324 289 270 305 296 294 283 299 290 299 293 284 319 309 328 282 267 293 298 300 319 307 278 315 255 299 293 305 297 324 327 316 301 282 299 306 300 310 312 304 297 316 318 288 309 308 296 285 283 281 331 324 296 309 326 299 331 303 317 320 297 302 293 310 306 321 293 290 277 283 287 283 331 324 320 293 280 286 280 294 317 339 286 317 313 323 326 302 284 294 301 310 289 305 285 308 318 300 298 299 283 323 295 279 311 295 338 287 290 291 272 293 284 298 316 293 289 331 326 307 269 309 339 309 290 273 299 303 295 297 299 270 276 313 293 308 289 309 327 326 323 277 272 305 285 281 298 307 316 304 306 276 301 318 299 318 263 297 319 311 336 290 317 306 268 307 297 320 305 281 298 295 277 286 345 313 283 308 280 296 315 326 299 327 292 297 294 301 313 289 311 320 282 302 299 315 299 291 281 274 292 303 312 294 286 283 324 284 306 299 324 320 286 322 326 324 301 297 282 295 306 283 312 298 319 334 325 289 341 276 330 334 286 305 296 293 286 295 283 272 314 309 342 295 299 282 312 313 308 316 289 320 300 309 304 278 315 297 295 278 320 319 323 281 286 309 321 317 264 297 297 292 303 293 314 300 334 277 298 328 286 279 304 332 305 298 277 288 298 313 291 317 304 312 297 287 295 302 291 315 306 341 313 309 281 321 298 309 285 305 329 310 292 306 289 292 313 309 275 274 304 294 269 301 300 313 321 278 309 278 292 262 296 290 288 284 283 306 311 296 301 290 297 315 284
237977
